{
  "extends":"danthedev-code-style",
  "rules": {
    "prefer-function-over-method":false,
    "member-access": false,
    "typedef": false,
    "react-this-binding-issue": false,
    "no-var-requires": false,
    "react-a11y-anchors": false,
    "no-empty-interface": false,
    "react-tsx-curly-spacing": false,
    "newline-before-return": false
  }
}
